PLAYER,SALARY,MIN,G,PA,AB,1B,2B,3B,HR,BB,HBP,SO,SB,CS
A.J. Pierzynski,5.85,NO,134,570,534,105,31,1,13,19,8,71,1,0
Aaron Boone,1.00,NO,100,255,232,36,13,1,6,18,2,52,0,1
Aaron Hill,0.41,YES,54,229,205,38,14,0,2,16,3,31,4,2
Aaron Miles,1.40,NO,130,408,379,99,15,2,4,23,0,37,3,3
Aaron Rowand,9.60,NO,152,611,549,99,37,0,13,44,14,126,2,4
Adam Dunn,13.00,NO,158,651,517,59,23,0,40,122,7,164,2,1
Adam Kennedy,3.50,NO,113,365,339,72,17,4,2,21,1,43,7,1
Adam LaRoche,5.00,NO,136,554,492,73,32,3,25,54,2,122,1,1
Adrian Beltre,13.40,NO,143,612,556,93,29,1,25,50,2,90,8,2
Adrian Gonzalez,0.88,NO,161,700,616,103,32,1,36,74,7,142,0,0
Akinori Iwamura,2.40,NO,152,707,627,127,30,9,6,70,4,131,8,6
Albert Pujols,13.87,NO,147,641,524,106,44,0,37,104,5,54,7,3
Alex Gordon,0.41,YES,134,571,493,76,35,1,16,66,6,120,9,2
Alex Rodriguez,28.00,NO,138,594,510,86,33,0,35,65,14,117,18,3
Alexei Ramirez,1.11,NO,135,509,480,94,22,2,21,18,3,61,13,9
Alfonso Soriano,14.00,NO,108,503,453,71,27,0,29,43,3,103,19,3
Alfredo Amezaga,0.95,NO,118,337,311,61,13,5,3,19,3,47,8,2
Andre Ethier,0.42,YES,140,596,525,97,38,5,20,59,4,88,6,3
Andruw Jones,14.73,NO,69,238,209,21,8,1,3,27,1,76,0,1
Aramis Ramirez,15.00,NO,149,645,554,88,44,1,27,74,11,94,2,2
Aubrey Huff,8.00,NO,154,661,598,100,48,2,32,53,3,89,4,0
Augie Ojeda,0.55,NO,99,272,231,45,9,2,0,26,10,24,0,0
Austin Kearns,5.00,NO,86,357,313,51,10,0,7,35,8,63,2,2
B.J. Upton,0.41,YES,145,640,531,97,37,2,9,97,2,134,44,16
Bengie Molina,6.25,NO,144,569,530,106,33,0,16,19,9,38,0,0
Bill Hall,4.93,NO,126,448,404,53,22,1,15,37,3,124,5,6
Bobby Abreu,16.00,NO,156,684,609,117,39,4,20,73,1,109,22,11
Bobby Crosby,3.55,NO,145,605,556,85,39,1,7,47,0,96,7,3
Brad Ausmus,2.00,NO,78,250,216,36,8,0,3,25,2,41,0,2
Brad Hawpe,3.93,NO,138,569,488,86,24,3,25,76,3,134,2,2
Brad Wilkerson,3.00,NO,95,309,264,40,12,2,4,35,1,68,3,5
Brandon Inge,6.20,NO,108,407,347,40,16,4,11,43,8,94,4,3
Brandon Phillips,2.94,NO,141,609,559,94,24,7,21,39,5,93,23,10
Brendan Harris,0.43,YES,130,490,434,76,29,3,7,39,4,98,1,1
Brian Giles,9.67,NO,146,653,559,115,40,4,12,87,2,52,2,2
Brian McCann,0.97,NO,145,573,509,87,42,1,23,57,4,64,5,0
Brian Roberts,6.30,NO,155,704,611,113,51,8,9,82,2,104,40,10
Brian Schneider,4.90,NO,105,384,335,67,10,0,9,42,1,53,0,0
Carl Crawford,5.38,NO,108,482,443,91,12,10,8,30,2,60,25,7
Carlos Beltran,18.62,NO,161,706,606,100,40,5,27,92,1,96,25,3
Carlos Delgado,16.00,NO,159,686,598,91,32,1,38,72,8,124,1,1
Carlos Guillen,12.00,NO,113,489,420,79,29,2,10,60,3,67,9,3
Carlos Lee,12.50,NO,115,481,436,82,27,0,28,37,3,49,4,1
Carlos Pena,6.00,NO,139,607,490,64,24,2,31,96,12,166,1,1
Carlos Quentin,0.40,YES,130,569,480,75,26,1,36,66,20,80,7,3
Carlos Ruiz,0.43,YES,109,373,320,52,14,0,4,44,4,38,1,2
Casey Blake,6.10,NO,152,601,536,89,36,1,21,49,11,120,3,0
Casey Kotchman,1.45,NO,142,573,525,100,28,1,14,36,9,39,2,1
Cesar Izturis,2.85,NO,129,454,414,95,10,3,1,29,6,26,24,6
Chad Tracy,4.00,NO,88,292,273,49,16,0,8,16,1,49,0,0
Chase Utley,7.79,NO,159,707,607,99,41,4,33,64,27,104,14,2
Chipper Jones,12.33,NO,128,534,439,113,24,1,22,90,1,61,4,0
Chone Figgins,4.75,NO,116,520,453,109,14,1,1,62,3,80,34,13
Chris Coste,0.42,YES,97,305,274,46,17,0,9,16,10,51,0,1
Chris Duncan,0.44,YES,76,257,222,41,8,0,6,34,0,52,2,1
Chris Gomez,1.00,NO,89,200,183,41,8,0,1,13,1,30,0,0
Chris Snyder,1.88,NO,111,404,334,40,22,1,16,56,4,101,0,0
Chris Young,0.41,YES,159,699,625,84,42,7,22,62,1,165,14,5
Cliff Floyd,2.75,NO,80,284,246,42,13,0,11,28,5,58,1,0
Clint Barmes,0.41,YES,105,417,393,72,25,6,11,17,2,69,13,4
Coco Crisp,5.08,NO,110,409,361,74,18,3,7,35,1,59,20,7
Conor Jackson,0.42,YES,144,612,540,113,31,6,12,59,9,61,10,2
Corey Hart,0.44,YES,157,657,612,93,45,6,20,27,5,109,23,7
Corey Patterson,3.00,NO,123,392,366,46,17,2,10,16,1,57,14,9
Craig Counsell,2.80,NO,105,302,248,40,14,1,1,46,5,42,3,1
Cristian Guzman,4.20,NO,137,612,579,134,35,5,9,23,5,57,6,5
Curtis Granderson,1.00,NO,139,629,553,94,26,13,22,71,3,111,12,4
Damion Easley,0.95,NO,113,347,316,67,10,2,6,19,7,38,0,0
Dan Uggla,0.42,YES,146,619,531,68,37,1,32,77,8,171,5,5
Darin Erstad,1.00,NO,127,342,322,69,16,0,4,14,2,68,2,3
David DeJesus,2.50,NO,133,577,518,115,25,7,12,46,5,71,11,8
David Dellucci,3.75,NO,111,375,336,48,19,2,11,24,11,76,3,2
David Eckstein,4.50,NO,94,376,324,63,21,0,2,31,9,32,2,1
David Ortiz,13.00,NO,109,491,416,56,30,1,23,70,1,74,1,0
David Wright,5.25,NO,160,736,626,112,42,2,33,94,4,118,15,5
Delmon Young,1.44,NO,150,623,575,125,28,4,10,35,7,105,14,5
Derek Jeter,21.60,NO,149,668,596,140,25,3,11,52,9,85,11,5
Derrek Lee,13.25,NO,155,698,623,117,41,3,20,71,0,119,8,2
Dioner Navarro,0.41,YES,119,470,427,92,27,0,7,34,3,49,0,4
Doug Mientkiewicz,0.75,NO,125,334,285,56,19,2,2,44,2,28,0,0
Dustin Pedroia,0.46,YES,157,726,653,140,54,2,17,50,7,52,20,1
Edgar Gonzalez,0.41,YES,110,353,325,67,15,0,7,25,2,76,1,3
Edgar Renteria,10.00,NO,136,547,503,102,22,2,10,37,0,64,6,3
Edwin Encarnacion,0.45,YES,145,582,506,71,29,1,26,61,10,102,1,0
Emil Brown,1.40,NO,115,438,402,69,14,2,13,27,5,65,4,2
Endy Chavez,1.80,NO,110,298,270,59,10,2,1,17,0,22,6,1
Eric Bruntlett,0.60,NO,103,238,212,34,9,1,2,21,3,35,9,2
Eric Byrnes,6.67,NO,52,224,206,23,13,1,6,16,2,36,4,4
Eric Hinske,0.80,NO,133,432,381,52,21,1,20,47,3,88,10,3
Erick Aybar,0.42,YES,97,375,346,70,18,5,3,14,5,45,7,2
Esteban German,1.00,NO,86,242,216,36,14,3,0,18,1,42,7,3
Felipe Lopez,4.90,NO,143,532,481,100,28,2,6,43,3,82,8,8
Frank Catalanotto,4.00,NO,87,278,248,42,23,1,2,20,6,29,1,1
Frank Thomas,12.56,NO,71,289,246,43,7,1,8,39,3,57,0,0
Franklin Gutierrez,0.40,YES,129,440,399,63,26,2,8,27,8,87,9,3
Freddy Sanchez,4.15,NO,145,608,569,117,26,2,9,21,4,63,0,1
Gabe Gross,0.41,YES,125,399,345,50,16,3,13,50,2,82,4,2
Gabe Kapler,0.80,NO,94,245,229,42,17,2,8,13,1,39,3,1
Garret Anderson,12.60,NO,143,593,557,118,27,3,15,29,1,77,7,4
Garrett Atkins,4.39,NO,155,664,611,119,32,3,21,40,3,100,1,1
Gary Matthews,9.40,NO,125,477,426,73,19,3,8,45,4,95,8,3
Gary Sheffield,13.33,NO,114,482,418,59,16,0,19,58,5,83,9,2
Geoff Blum,1.10,NO,113,356,325,49,14,1,14,21,3,54,1,2
Geoff Jenkins,5.00,NO,105,322,293,47,16,0,9,24,1,68,1,1
Geovany Soto,0.40,YES,140,563,494,81,35,2,23,62,2,121,0,1
Gerald Laird,1.60,NO,95,381,344,65,24,0,6,23,6,63,2,4
Grady Sizemore,3.17,NO,157,745,634,93,39,5,33,98,11,130,38,5
Greg Dobbs,0.44,YES,122,240,226,44,14,1,9,11,1,40,3,1
Gregg Zaun,3.75,NO,85,288,245,40,12,0,6,38,1,38,2,1
Hank Blalock,6.00,NO,65,281,258,42,19,1,12,19,2,40,1,0
Hanley Ramirez,0.44,YES,153,693,589,106,34,4,33,92,8,122,35,12
Hideki Matsui,13.00,NO,93,378,337,73,17,0,9,38,3,47,0,0
Howie Kendrick,0.43,YES,91,361,340,73,26,2,3,12,4,58,11,4
Ian Kinsler,0.70,NO,121,583,518,102,41,4,18,45,6,67,26,2
Ichiro Suzuki,17.10,NO,162,749,686,180,20,7,6,51,5,65,43,4
Ivan Rodriguez,12.38,NO,111,429,398,80,20,3,7,23,3,67,10,1
J.D. Drew,14.00,NO,108,456,368,57,23,4,19,79,4,80,4,1
J.J. Hardy,2.65,NO,145,629,569,102,31,4,24,52,1,98,2,1
Jack Cust,0.41,YES,148,598,481,59,19,0,33,111,2,197,0,0
Jack Wilson,6.65,NO,87,330,305,63,18,1,1,13,5,27,2,2
Jacoby Ellsbury,0.41,YES,140,609,554,117,22,7,9,41,7,80,50,11
James Loney,0.41,YES,161,651,595,118,35,6,13,45,3,85,7,4
Jamey Carroll,2.15,NO,110,402,347,78,13,4,1,34,9,65,7,3
Jason Bartlett,0.42,YES,127,494,454,101,25,3,1,22,9,69,20,6
Jason Bay,6.00,NO,154,670,577,95,35,4,31,81,4,137,10,0
Jason Giambi,23.43,NO,145,565,458,61,19,1,32,76,22,111,2,1
Jason Kendall,4.25,NO,151,587,516,93,30,2,2,50,13,45,8,3
Jason Kubel,1.30,NO,140,517,463,79,22,5,20,47,0,91,0,1
Jason Michaels,2.20,NO,119,321,286,42,13,1,8,27,2,65,2,1
Jason Varitek,10.44,NO,126,483,423,60,20,0,13,52,6,122,0,1
Jay Payton,5.00,NO,120,364,338,63,10,2,7,22,1,53,8,1
Jayson Werth,1.70,NO,129,482,418,71,16,3,24,57,4,119,20,1
Jeff Baker,0.40,YES,104,333,299,45,22,1,12,26,1,85,4,0
Jeff Francoeur,0.46,YES,155,653,599,96,33,3,11,39,10,111,0,1
Jeff Kent,9.00,NO,121,474,440,87,23,1,12,25,7,52,0,1
Jeff Keppinger,0.40,YES,120,502,459,93,24,2,3,30,2,24,3,1
Jeff Mathis,0.42,YES,92,328,283,38,8,0,9,30,3,90,2,2
Jermaine Dye,9.50,NO,154,645,590,95,41,2,34,44,6,104,3,2
Jesus Flores,0.40,YES,90,324,301,50,18,1,8,15,4,78,0,1
Jhonny Peralta,2.50,NO,154,664,605,98,42,4,23,48,4,126,3,1
Jim Edmonds,8.00,NO,109,401,340,39,19,2,20,55,2,82,2,2
Jim Thome,15.67,NO,149,602,503,61,28,0,34,91,4,147,1,0
Jimmy Rollins,8.00,NO,137,625,556,96,38,9,11,58,5,55,47,3
Jody Gerut,0.70,NO,98,356,328,64,15,4,14,28,0,52,6,4
Joe Crede,5.10,NO,96,373,335,47,18,1,17,30,4,45,0,3
Joe Mauer,6.25,NO,146,633,536,132,31,4,9,84,1,50,1,1
Joey Gathright,0.43,YES,96,315,279,67,3,1,0,20,4,40,21,4
John Buck,2.20,NO,109,418,370,50,23,1,9,38,6,96,0,3
John McDonald,1.90,NO,74,207,186,30,8,0,1,10,2,25,3,1
Johnny Damon,13.00,NO,142,623,555,119,27,5,17,64,1,82,29,8
Jorge Cantu,0.50,NO,154,685,628,104,41,0,29,40,10,111,6,2
Jose Bautista,1.80,NO,127,424,370,56,17,0,15,40,2,91,1,1
Jose Castillo,0.65,NO,125,455,426,66,29,4,6,27,1,81,2,2
Jose Guillen,12.00,NO,153,633,598,95,42,1,20,23,9,106,2,1
Jose Lopez,1.75,NO,159,687,644,132,41,1,17,27,1,67,6,3
Jose Molina,1.88,NO,92,297,268,38,17,0,3,12,6,52,0,0
Jose Reyes,4.38,NO,159,763,688,132,37,19,16,66,1,82,56,15
Jose Vidro,8.50,NO,85,330,308,54,11,0,7,18,0,36,2,1
Josh Willingham,0.41,YES,102,416,351,48,21,5,15,48,14,82,3,2
Juan Pierre,8.00,NO,119,406,375,93,10,2,1,22,3,24,40,12
Juan Rivera,2.03,NO,85,280,256,38,13,0,12,16,0,33,1,1
Juan Uribe,4.50,NO,106,353,324,50,22,1,7,22,1,64,1,3
Julio Lugo,9.25,NO,82,307,261,56,13,0,1,34,4,51,12,4
Justin Morneau,8.40,NO,163,712,623,113,47,4,23,76,3,85,0,1
Kazuo Matsui,5.50,NO,96,422,375,75,26,3,6,37,0,53,20,5
Kelly Johnson,0.43,YES,150,614,547,100,39,6,12,52,2,113,11,6
Kelly Shoppach,0.40,YES,109,403,352,44,27,0,21,36,11,133,0,0
Ken Griffey,8.28,NO,143,575,490,73,30,1,18,78,3,89,0,1
Kenji Johjima,6.38,NO,109,409,379,60,19,0,7,19,8,33,2,0
Kevin Kouzmanoff,0.41,YES,154,668,624,104,31,4,23,23,15,139,0,0
Kevin Millar,3.80,NO,144,610,531,79,25,0,20,71,2,93,0,1
Kevin Youkilis,3.00,NO,144,621,538,92,43,4,29,62,12,108,3,5
Khalil Greene,4.50,NO,105,423,389,56,15,2,10,22,5,100,5,1
Kosuke Fukudome,7.00,NO,149,590,501,91,25,3,10,81,1,104,12,4
Lance Berkman,14.50,NO,159,665,554,94,46,4,29,99,7,108,18,4
Lastings Milledge,0.40,YES,138,587,523,100,24,2,14,38,14,96,24,9
Luis Castillo,6.25,NO,85,359,298,62,7,1,3,50,2,35,17,2
Luis Gonzalez,2.00,NO,135,387,341,54,26,1,8,41,0,43,1,2
Luis Rivas,0.53,NO,77,223,206,34,6,2,3,13,1,27,3,2
Luke Scott,0.43,YES,148,536,475,68,29,2,23,53,5,102,2,2
Lyle Overbay,6.75,NO,157,630,544,98,32,2,15,74,3,116,1,2
Magglio Ordonez,15.77,NO,146,623,561,123,32,2,21,53,3,76,1,5
Maicer Izturis,1.20,NO,79,321,290,59,14,2,3,26,1,27,11,2
Manny Ramirez,18.93,NO,153,654,552,109,36,1,37,87,11,124,3,0
Marco Scutaro,1.55,NO,142,592,517,107,23,1,7,57,5,65,7,2
Marcus Thames,1.28,NO,100,342,316,39,12,0,25,24,0,95,0,3
Mark DeRosa,4.75,NO,149,593,505,90,30,3,21,69,9,106,6,0
Mark Ellis,5.00,NO,117,507,442,68,20,3,12,53,5,65,14,2
Mark Grudzielanek,4.50,NO,86,360,331,72,24,0,3,19,5,41,2,1
Mark Kotsay,7.00,NO,110,436,402,76,25,4,6,32,0,45,2,4
Mark Loretta,2.75,NO,101,297,261,54,15,0,4,29,2,30,0,0
Mark Teahen,2.34,NO,149,623,572,96,31,4,15,46,3,131,4,3
Mark Teixeira,12.50,NO,157,685,574,103,41,0,33,97,7,93,2,0
Marlon Byrd,1.80,NO,118,462,403,78,28,4,10,46,9,62,7,2
Matt Holliday,9.50,NO,139,623,539,108,38,2,25,74,8,104,28,2
Matt Kemp,0.41,YES,154,657,606,115,38,5,18,46,1,153,35,11
Matt Stairs,1.63,NO,121,387,337,59,12,1,13,42,5,90,1,1
Matt Treanor,0.71,NO,62,234,206,40,7,0,2,18,3,53,1,0
Melky Cabrera,0.46,YES,121,453,414,82,12,1,8,29,3,58,9,2
Melvin Mora,7.83,NO,135,570,513,92,29,2,23,37,11,70,3,7
Michael Cuddyer,5.92,NO,71,279,249,42,13,4,3,25,5,40,5,1
Michael Young,6.17,NO,155,708,645,133,36,2,12,55,2,109,10,0
Miguel Cabrera,11.30,NO,160,684,616,105,36,2,37,56,3,126,1,0
Miguel Cairo,0.85,NO,98,250,221,39,14,2,0,18,4,32,5,2
Miguel Montero,0.40,YES,69,207,184,25,16,1,5,19,2,49,0,0
Miguel Olivo,2.05,NO,83,317,306,44,22,0,12,7,3,82,7,0
Miguel Tejada,14.81,NO,157,666,632,125,38,3,13,24,6,72,7,7
Mike Cameron,6.25,NO,120,508,444,56,25,2,25,54,6,142,17,5
Mike Fontenot,0.41,YES,112,284,243,42,22,1,9,34,3,51,2,0
Mike Lamb,3.50,NO,90,272,247,42,12,3,1,17,0,33,0,1
Mike Lowell,12.50,NO,111,468,419,71,27,0,17,38,5,61,2,2
Mike Napoli,0.43,YES,78,274,227,32,9,1,20,35,5,70,7,3
Milton Bradley,5.25,NO,125,510,414,78,32,1,22,80,9,112,5,3
Nate McLouth,0.43,YES,152,685,597,89,46,4,26,65,12,93,23,3
Nick Markakis,0.46,YES,157,697,595,113,48,1,20,99,2,113,10,7
Nick Punto,2.40,NO,95,377,338,71,19,4,2,32,0,57,15,6
Nick Swisher,3.60,NO,151,588,497,63,21,1,24,82,4,135,3,3
Omar Infante,1.40,NO,93,348,317,63,24,3,3,22,2,44,0,1
Omar Vizquel,5.00,NO,90,300,266,48,10,1,0,24,0,29,5,4
Orlando Cabrera,10.00,NO,161,730,661,144,33,1,8,56,1,71,19,6
Orlando Hudson,6.25,NO,107,455,407,84,29,3,8,40,2,62,4,1
Pat Burrell,14.25,NO,157,645,536,65,33,3,33,102,1,136,0,0
Paul Bako,0.75,NO,96,338,299,46,11,2,6,34,1,90,0,2
Paul Konerko,12.00,NO,122,514,438,63,19,1,22,65,7,80,2,0
Pedro Feliz,3.00,NO,130,463,425,71,19,2,14,33,0,54,0,0
Placido Polanco,4.60,NO,138,629,580,133,34,3,8,35,6,43,7,1
Prince Fielder,0.67,NO,159,694,588,96,30,2,34,84,12,134,3,2
Ramon Hernandez,7.50,NO,133,507,463,81,22,1,15,32,5,62,0,0
Ramon Vazquez,0.81,NO,100,347,300,60,18,3,6,38,0,66,0,1
Randy Winn,8.88,NO,155,667,598,133,38,2,10,59,0,88,25,2
Raul Ibanez,5.50,NO,162,707,635,117,43,3,23,64,3,110,2,4
Ray Durham,7.50,NO,128,426,370,66,35,0,6,53,2,72,8,4
Reed Johnson,1.30,NO,107,374,333,74,21,0,6,19,12,68,5,6
Rich Aurilia,4.50,NO,134,440,407,83,21,1,10,30,1,56,1,1
Richie Sexson,15.50,NO,91,327,280,41,9,0,12,43,0,86,1,0
Rick Ankiel,0.90,NO,119,463,413,61,21,2,25,42,5,100,2,1
Rickie Weeks,1.06,NO,129,560,475,68,22,7,14,66,14,115,19,5
Robinson Cano,3.00,NO,159,634,597,110,35,3,14,26,5,65,2,4
Rod Barajas,0.70,NO,100,377,349,53,23,0,11,17,7,61,0,0
Ronny Cedeno,0.41,YES,94,236,216,44,12,0,2,18,1,41,4,1
Ross Gload,1.30,NO,116,418,388,84,18,1,3,23,3,39,3,4
Russell Martin,0.50,NO,155,650,553,117,25,0,13,90,5,83,18,6
Ryan Braun,0.46,YES,151,663,611,91,39,7,37,42,6,129,14,4
Ryan Church,2.00,NO,90,359,319,61,14,1,12,33,3,83,2,3
Ryan Doumit,0.41,YES,115,465,431,88,34,0,15,23,6,55,2,2
Ryan Garko,0.42,YES,141,563,495,99,21,1,14,45,15,86,0,0
Ryan Howard,10.00,NO,162,700,610,75,26,4,48,81,3,199,1,1
Ryan Ludwick,0.41,YES,150,617,538,81,40,3,37,62,8,146,4,4
Ryan Theriot,0.43,YES,149,661,580,154,19,4,1,73,3,58,22,13
Ryan Zimmerman,0.47,YES,106,466,428,82,24,1,14,31,3,71,1,1
Scott Hairston,0.41,YES,111,362,326,43,18,3,17,28,3,84,3,1
Scott Rolen,11.63,NO,115,467,408,63,30,3,11,46,10,71,5,0
Sean Casey,0.80,NO,67,218,199,50,14,0,0,17,2,25,1,0
Shane Victorino,0.48,YES,146,627,570,115,30,8,14,45,7,69,36,11
Shannon Stewart,1.50,NO,52,200,175,35,4,2,1,22,1,18,3,1
Stephen Drew,1.50,NO,150,663,611,102,44,11,21,41,1,109,3,3
Tadahito Iguchi,3.85,NO,84,337,310,54,15,1,2,26,0,75,8,1
Todd Helton,16.60,NO,83,361,299,56,16,0,7,61,1,50,0,0
Tony Pena,0.41,YES,80,235,225,32,4,1,1,6,0,49,3,1
Torii Hunter,16.50,NO,146,608,551,93,37,2,21,50,6,108,19,5
Travis Hafner,8.05,NO,57,234,198,24,10,0,5,27,5,55,1,1
Troy Glaus,12.50,NO,151,637,544,86,33,1,27,87,3,104,0,1
Troy Tulowitzki,0.75,NO,100,421,377,65,24,2,8,38,2,56,1,6
Ty Wigginton,4.35,NO,109,429,386,64,22,1,23,32,8,69,4,6
Vernon Wells,3.69,NO,108,466,427,85,22,1,20,29,3,46,4,2
Victor Martinez,4.45,NO,73,294,266,55,17,0,2,24,1,32,0,0
Vladimir Guerrero,15.50,NO,143,600,541,103,31,3,27,51,4,77,5,3
Wes Helms,2.40,NO,115,278,251,45,11,0,5,17,5,65,0,0
Willie Harris,0.80,NO,133,424,367,61,14,4,13,50,3,66,13,3
Willy Aybar,0.40,YES,95,362,324,53,17,2,10,32,4,44,2,2
Willy Taveras,1.98,NO,133,538,479,102,15,2,1,36,5,79,68,7
Wily Mo Pena,2.00,NO,63,206,195,32,6,0,2,10,0,48,0,1
Xavier Nady,3.35,NO,147,607,555,106,37,1,25,39,9,103,2,1
Yadier Molina,1.81,NO,123,485,444,110,18,0,7,32,1,29,0,2
Yorvit Torrealba,3.00,NO,68,261,236,35,17,0,6,12,5,44,0,4
Yunel Escobar,0.40,YES,133,587,514,112,24,2,10,59,5,62,2,5
Yuniesky Betancourt,1.55,NO,153,590,559,110,36,3,7,17,2,42,4,4
